…
      if (nrow(result) > 0) {
        simple_suspicious <- bind_rows(simple_suspicious, result)
      }
    }
  }
}

simple_suspicious
```

    # A tibble: 35 × 8
       source_ip   request_count time_diffs avg_interval std_dev      cv is_periodic
       <chr>               <int> <list>            <dbl>   <dbl>   <dbl> <lgl>      
     1 192.168.20…             3 <dbl [2]>        906.    2.44e0 0.00269 TRUE       
     2 192.168.21…           129 <dbl>             63.4   8.35e1 1.32    TRUE       
     3 192.168.23…           194 <dbl>             65.1   7.78e1 1.19    TRUE       
     4 192.168.24…           210 <dbl>             60.1   7.65e1 1.27    TRUE       
     5 192.168.27…             9 <dbl [8]>       1422.    1.27e3 0.894   TRUE       
     6 2001:dbb:c…             7 <dbl [6]>          1.17  1.61e0 1.37    TRUE       
     7 2001:dbb:c…             9 <dbl [8]>          1.00  1.42e0 1.41    TRUE       
     8 2001:dbb:c…             9 <dbl [8]>          1.01  1.43e0 1.42    TRUE       
     9 192.168.20…             3 <dbl [2]>      12587.    1.27e4 1.01    TRUE       
    10 192.168.20…             5 <dbl [4]>         10.0   1.19e1 1.18    TRUE       
    # ℹ 25 more rows
    # ℹ 1 more variable: domain <chr>
…
