…
### Шаг 2

#### Определим небезопасные точки доступа (без шифрования – OPN).

``` r
ap_opn <- ap_with_vendor %>%
  filter(str_detect(privacy, "OPN"))

ap_opn %>%
  select(bssid, essid, vendor, privacy, cipher, authentication, channel, speed, power)
```

    # A tibble: 42 × 9
       bssid          essid vendor privacy cipher authentication channel speed power
       <chr>          <chr> <chr>  <chr>   <chr>  <chr>            <int> <dbl> <dbl>
     1 E8:28:C1:DC:B… MIRE… Eltex… OPN     <NA>   <NA>                 6   130   -63
     2 E8:28:C1:DC:B… MIRE… Eltex… OPN     <NA>   <NA>                 6   130   -63
     3 E8:28:C1:DC:B… <NA>  Eltex… OPN     <NA>   <NA>                 6   130   -63
     4 E8:28:C1:DC:F… <NA>  Eltex… OPN     <NA>   <NA>                 6    -1    -1
     5 00:25:00:FF:9… <NA>  Apple… OPN     <NA>   <NA>                44    -1    -1
     6 E8:28:C1:DD:0… MIRE… Eltex… OPN     <NA>   <NA>                11   130   -67
     7 E8:28:C1:DE:7… <NA>  Eltex… OPN     <NA>   <NA>                 6   130   -82
     8 E8:28:C1:DE:7… MIRE… Eltex… OPN     <NA>   <NA>                 6   130   -69
     9 E8:28:C1:DC:C… MIRE… Eltex… OPN     <NA>   <NA>                 1   130   -69
    10 E8:28:C1:DD:0… MIRE… Eltex… OPN     <NA>   <NA>                11   130   -78
    # ℹ 32 more rows
…
